{
    "name": "Xiao",
    "titles": [
        "Guardian Yaksha",
        "Nuo Dance of Evil Conquering",
        "Alatus, the Golden-Winged King"
    ],
    "element": "Anemo",
    "weapontype": "Polearm",
    "gender": "Male",
    "region": "Liyue",
    "rarity": "5",
    "birthday": "April 17",
    "constellation": "Alatus Nemeseos",
    "substat": "% CRIT Rate",
    "images": {
        "image": "https://static.wikia.nocookie.net/gensin-impact/images/b/b9/Character_Xiao_Thumb.png",
        "card": "https://static.wikia.nocookie.net/gensin-impact/images/8/88/Character_Xiao_Card.jpg",
        "portrait": "https://static.wikia.nocookie.net/gensin-impact/images/1/1e/Character_Xiao_Portrait.png"
    },
    "cv": {
    	"english": "Laila Berzins",
        "japanese": "Yoshitsugu Matsuoka",
        "korean": "Jeong Yoo-Mi",
        "chinese": "Jinchuan"
    },
    "affiliation": "Liyue Adeptus",
    "description": "One of the \"Mighty and Illuminated Adepti\" guarding Liyue, also heralded as the \"Guardian yaksha.\"\nDespite his appearance as a young man, occasional legends about him have been documented in ancient books for thousands of years.\nHe is especially fond of Wangshu Inn's Almond Tofu.\nThe reason is that the dish tastes just like the \"dreams\" he used to devour.",
    "talentmaterialtype": "Prosperity",
    "url": "https://genshin-impact.fandom.com/wiki/Xiao"
}