{
    "name": "Ebony Bow",
    "weapontype": "Bow",
    "rarity": "3",
    "images": {
        "image": "https://static.wikia.nocookie.net/gensin-impact/images/a/a1/Weapon_Ebony_Bow.png"
    },
    "baseatk": "40",
    "substat": "ATK%",
    "subvalue": "6.3",
    "effectname": "Decimate",
    "effect": "Increases DMG against mechanoid Ruin enemies by {0}%.",
    "r1": ["40"],
    "r2": ["50"],
    "r3": ["60"],
    "r4": ["70"],
    "r5": ["80"],
    "description": "A longbow made of ebony wood with stiffer limbs than ordinary bows. It is also a far more powerful weapon.",
    "weaponmaterialtype": "",
    "url": "A longbow made of ebony wood with stiffer limbs than ordinary bows. It is also a far more powerful weapon."
}